-------------------------------------------------------------------------------
Test set: com.phossil.week5.AppTest
-------------------------------------------------------------------------------
Tests run: 3, Failures: 0, Errors: 0, Skipped: 0, Time elapsed: 0.042 s - in com.phossil.week5.AppTest
